{
  "mandate": "The portfolio is designed to provide modest growth, above inflation, with a medium level of risk and targets a positive impact on people and planet, tilted towards your preference for outcomes that improve people\u2019s lives.",
  "carbonFootprint": {
    "value": "64%",
    "description": "less than MSCI World"
  },
  "positiveImpact": {
    "value": "28%",
    "description": "contributes to UN SDGs"
  }
}