{
  "mandate": "The portfolio is designed to provide limited growth, greater than cash or bond returns, with a low level of risk and targets a positive impact on people and planet, tilted towards your preference for outcomes that protect the planet.",
  "carbonFootprint": {
    "value": "58%",
    "description": "less than MSCI World"
  },
  "positiveImpact": {
    "value": "31%",
    "description": "contributes to UN SDGs"
  }
}