{
  "assetGroups": [
    {
      "assetGroupType": "Equities",
      "weight": 71.5,
      "assets": [
        {
          "name": "Adidas",
          "weight": 1.1,
          "description": "Adidas is a global sportswear company committed to using only recycled polyester from 2024. It\u2019s also developing plant-based leather, recycled cotton and a climate-friendly running shoe. "
        },
        {
          "name": "Adobe",
          "weight": 1.1,
          "description": "Adobe is a software giant aiming to change the world through digital experiences.  It has an ambitious target to source 100% of its electricity from renewable energy by 2035. "
        },
        {
          "name": "AIA Group",
          "weight": 1.5,
          "description": "AIA sells insurance protection and savings plans, often where there is scant safety-net provided by the state. Unlike some rivals it doesn\u2019t push deals with dubious incentive payments."
        },
        {
          "name": "Alphabet ",
          "weight": 1.9,
          "description": "Google\u2019s parent company Alphabet makes money from digital ad spending across its services \u2013 including YouTube, Google Play and Android, and a cloud computing business.  It intends to run on \u201ccarbon-free energy\u201d 24/7 by 2030."
        },
        {
          "name": "Anthem ",
          "weight": 1.2,
          "description": "Anthem is a US healthcare insurer in the lower-cost, lower-income segment. It manages to contain healthcare costs for customers, many of whom are elderly, while operating in an ethical way."
        },
        {
          "name": "ASML",
          "weight": 0.9,
          "description": "This business provides computer microchip-makers with hardware, software and services. It has around 4,500 suppliers and is committed to a \u201csustainable, resilient and responsible supplier network\u201d. "
        },
        {
          "name": "Assa Abloy",
          "weight": 1.0,
          "description": "This Swedish conglomerate with a range of door-related products (think locks, gates and entrance automation) says it is developing products with energy efficiency in mind \u2013 and has set targets to reduce its own resource intensity.   "
        },
        {
          "name": "Astrazeneca",
          "weight": 1.0,
          "description": "This global pharmaceutical company delivers life changing medicines, including its COVID 19 vaccine which has saved over a million lives around the world."
        },
        {
          "name": "B3 - Brasil, Bolsa, Balcao",
          "weight": 0.4,
          "description": "Brazil\u2019s stock exchange operator Bolsa Balcao plays a role in raising standards among companies and investors, pushing for greater transparency and action on sustainable issues."
        },
        {
          "name": "BBVA",
          "weight": 0.9,
          "description": "Spain-based Banco Bilbao Vizcaya Argentiaria SA is ranked as Europe's most sustainable bank according to the Dow Jones Sustainability Index."
        },
        {
          "name": "Bank Central Asia ",
          "weight": 1.4,
          "description": "Indonesia\u2019s Bank Central Asia is an efficiently run bank with a consistent track record for delivering growth and a commitment to sustainability."
        },
        {
          "name": "Booking Holdings ",
          "weight": 1.6,
          "description": "One of the largest online travel marketplaces, Booking Holdings in the US also runs an accelerator and grant scheme for sustainable tourism start-ups."
        },
        {
          "name": "Bunzl",
          "weight": 1.4,
          "description": "Bunzl, the distribution and food packaging firm which calls itself \u201cthe largest company you\u2019ve never heard of\u201d, has developed a carbon neutral bag for life using 97% recycled plastic."
        },
        {
          "name": "Dexcom",
          "weight": 0.7,
          "description": "This business in California, helping diabetes sufferers manage their illness better through real-time glucose readings on their phone or watch, saw revenues increase from $1.5bn to $1.9bn in 2020."
        },
        {
          "name": "First Republic Bank",
          "weight": 0.7,
          "description": "This American bank and wealth management franchise is committed to \u201cdoing the right thing and creating shareholder value\u201d. "
        },
        {
          "name": "Greggs",
          "weight": 0.5,
          "description": "Greggs, the bakery turned food on-the-go chain famous for its successful vegan sausage roll, has 10 commitments to \u201chelp make the world a better place by 2025\u201d including providing free breakfasts to school children. "
        },
        {
          "name": "HDFC",
          "weight": 1.3,
          "description": "One of India\u2019s largest banks, HDFC has provided access to financial services to almost 10 million in unbanked and underbanked segments of the population and more than half of its outlets are rural or semi-urban. "
        },
        {
          "name": "Husqvarna ",
          "weight": 0.7,
          "description": "Husqvarna, the Swiss manufacturer of outdoor power tools, including trimmers and mowers, hopes to be part of a shift to a \u201cresource-smart economy\u201d, for example through tool rental and a pledge to reduce emissions by 35% by 2025. "
        },
        {
          "name": "Kingfisher ",
          "weight": 0.9,
          "description": "Kingfisher, the home improvement firm with retail banners including B&Q, Screwfix and Brico D\u00e9p\u00f4t, has pledged to become \u201cforest positive\u201d by 2025, i.e. create more forests than it uses. "
        },
        {
          "name": "Mastercard",
          "weight": 1.1,
          "description": "The global payments and technology corporation, which serves billions of consumers, has a financial inclusion target of connecting \u201cone billion people to the digital economy by 2025\u201d."
        },
        {
          "name": "Microsoft ",
          "weight": 2.2,
          "description": "Microsoft is aiming for 100% renewables and net negative emissions by 2030, and plans to remove all cumulative emissions since 1975 by 2050 through reforestation, carbon sequestration and carbon capture and storage. "
        },
        {
          "name": "Nestle ",
          "weight": 1.3,
          "description": "The Swiss multinational food and beverage company, known for brands like Smarties and Fruit Pastilles, aims to achieve 100% recyclable or reusable packaging and reduce the use of virgin plastics by one third by 2025. "
        },
        {
          "name": "Oak Street Health  ",
          "weight": 0.3,
          "description": "This is a profitable start-up that focuses on low-income elderly US patients, but its unusual model means it profits by keeping its customers as healthy as possible."
        },
        {
          "name": "Raia Drogasil",
          "weight": 0.6,
          "description": "Pharmacy chain RAIA Dogasil expands healthcare provision in poor regions with ageing populations \u2013 and with women making up two-thirds of its staff, it has a positive impact as an employer, too."
        },
        {
          "name": "Reckitt",
          "weight": 0.8,
          "description": "This health, hygiene and nutrition business includes brands like Dettol, Finish and Durex and seeks to create a cleaner healthier world for all."
        },
        {
          "name": "Recruit Holdings ",
          "weight": 1.4,
          "description": "Successful staffing agency Recruit is a positive social influence in terms of raising workplace standards and commitments to employees and customers."
        },
        {
          "name": "Roche",
          "weight": 0.9,
          "description": "Roche Holding, the Swiss pharmaceutical and diagnostics company, says it aims to \u201cdrive economic, social and environmental performance with the same diligence as our financial performance\u201d."
        },
        {
          "name": "Safaricom",
          "weight": 0.4,
          "description": "This Kenyan telecoms business profits from accelerating connectivity in Africa and \u2013 through its pioneering mobile money service M-Pesa \u2013 is helping an unbanked population avoid loan sharks."
        },
        {
          "name": "Schneider",
          "weight": 1.1,
          "description": "This French energy management firm is benefiting from global megatrends transforming the way we generate and store power, including demand for \u201csmart grids\u201d and renewables."
        },
        {
          "name": "Spirax Sarco ",
          "weight": 0.5,
          "description": "This long-standing specialist in steam solutions, for example for use in food production and drug manufacturing, has committed to deliver a 10% biodiversity net gain."
        },
        {
          "name": "TSMC",
          "weight": 1.6,
          "description": "Semiconductor maker TSMC is successfully pressuring suppliers to raise environmental standards in terms of emissions and water use."
        },
        {
          "name": "Texas Instruments ",
          "weight": 1.6,
          "description": "This US tech firm is a successful maker of semiconductors and integrated circuits for electronics firms around the world is educating suppliers on safe and ethical labour standards. "
        },
        {
          "name": "Thermo Fisher Scientific",
          "weight": 1.3,
          "description": "This laboratory equipment manufacturer\u2019s mission is to \u201cmake the world healthier, cleaner and safer\u201d, and its playing an important role in improving life sciences research and patient diagnostics."
        },
        {
          "name": "Tomra Systems",
          "weight": 0.5,
          "description": "This Norwegian recycling machine maker is cleaning up and cashing in on the war on waste with its \u201creverse vending\u201d and sorting contraptions."
        },
        {
          "name": "Toronto Dominion Bank",
          "weight": 1.5,
          "description": "TD is a major force in low-carbon lending and green bonds. It\u2019s also recognized as one of Canada\u2019s top employers for diversity."
        },
        {
          "name": "Trane Technologies ",
          "weight": 1.0,
          "description": "This successful Irish manufacturer of heating, ventilating and air con systems says it\u2019s \u201creducing one gigaton \u2013 one billion metric tons \u2013 of carbon emissions from customers\u2019 footprint by 2030\u201d.  "
        },
        {
          "name": "Unilever",
          "weight": 0.8,
          "description": "Unilever, the consumer goods giant behind brands including Dove and Domestos, has committed to making \u201csustainable living commonplace for 8 billion people\u201d. "
        },
        {
          "name": "UnitedHealth Group",
          "weight": 1.0,
          "description": "UnitedHealth Group, the successful US health care and insurance firm, has a business model focused on helping people live healthier lives and making the health system work better."
        },
        {
          "name": "Vertiv Holdings",
          "weight": 1.0,
          "description": "Vertiv sells equipment which helps customers manage and cut their energy and water use. With datacenters comprising a large chunk of its sales, this is a growing area where efficiencies will have a range of environmental benefits."
        },
        {
          "name": "Vestas Wind Systems ",
          "weight": 1.1,
          "description": "This Denmark-based family-owned blacksmith turned global wind turbine manufacturing business turns a profit while powering the energy transition. "
        },
        {
          "name": "Visa",
          "weight": 1.3,
          "description": "The American multinational financial services corporation Visa has more than 20,000 employees globally and says it is committed to doing \u201ceverything we can to drive racial equality and bring lasting change for our people, community and company\u201d. "
        },
        {
          "name": "Vontobel mtx Sustainable Emerging Markets Leaders",
          "weight": 3.7,
          "description": "An equity fund investing in companies listed in emerging markets, which excludes sectors such as weapons, palm oil production and tobacco, with a track record of outperforming its benchmark. "
        },
        {
          "name": "Montanaro Better World ",
          "weight": 2.3,
          "description": "The fund invests in global equities, focussing on companies that have a positive impact and strong growth prospects such as in healthcare sectors, life sciences and electronics and semi-conductors. "
        },
        {
          "name": "M&G Positive Impact Fund",
          "weight": 4.1,
          "description": "A global equity fund investing in companies that have a positive impact relating to specific challenges such as Climate Action, Environmental Solutions, Better Work and Education and Social Inclusion. "
        },
        {
          "name": "Ninety One III Global Environment Fund",
          "weight": 4.5,
          "description": "The fund looks to invest in the structural winners of decarbonisation, which are contributing positive change through renewable energy, resource efficiency and/or electrification. "
        },
        {
          "name": "RobecoSAM Sustainable Water Fund",
          "weight": 2.2,
          "description": "While water resources are limited, demand for water is increasing. This fund aims to invest in companies that benefit along the water value chain such as waste water treatment, water analytics and infrastructure. "
        },
        {
          "name": "Sparinvest Ethical Global Value",
          "weight": 4.9,
          "description": "A fund focussed on global companies that are improving or are already leaders in sustainability, at attractive share price valuations, including small and medium sized companies. "
        },
        {
          "name": "Pictet-Nutrition",
          "weight": 3.9,
          "description": "The fund seeks to capture the opportunity represented by the megatrend shifts in food, land and agriculture, investing in global companies within agri-tech sectors, logistics such as packaging and distribution alongside food products and safety. "
        },
        {
          "name": "Impax Environmental Markets",
          "weight": 2.4,
          "description": "An equity fund with a bias to small and medium sized companies focusing on the environment, such as those providing solutions to pollution or resource scarcity.  "
        }
      ]
    },
    {
      "assetGroupType": "Bonds",
      "weight": 10.3,
      "assets": [
        {
          "name": "Rathbone Ethical Bond Fund",
          "weight": 1.1,
          "description": "A high quality corporate bond fund, lending to companies or organisations that are managed and use their capital responsibly, including social housing and renewable energy. "
        },
        {
          "name": "Threadneedle EU Social Bond Fund",
          "weight": 1.7,
          "description": "The fund invests in bonds issued by governments, companies or charities where there is expected to be a positive social benefit alongside a financial return, with a focus on Europe. "
        },
        {
          "name": "Lyxor US Inflation-Linked Treasuries (TIPS)",
          "weight": 4.9,
          "description": "Tracks the performance of US inflation-linked government bonds (called TIPS - Treasury Inflation-Protected Securities)."
        },
        {
          "name": "iShares USD Treasury Bond 20+ years",
          "weight": 0.7,
          "description": "Tracks the performance of US government bonds (Treasuries) with maturities of at least 20 years."
        },
        {
          "name": "Lombard Odier Global Climate Bond Fund",
          "weight": 1.9,
          "description": "The fund invests in bonds with a designated social or environmental impact, with a significant allocation to projects tackling climate change."
        }
      ]
    },
    {
      "assetGroupType": "Other",
      "weight": 13.4,
      "assets": [
        {
          "name": "Schroder BSC Social Impact Trust",
          "weight": 0.8,
          "description": "An innovative fund providing investors with exposure to high impact investment opportunities addressing social needs in the UK. "
        },
        {
          "name": "iShares Physical Metals - gold",
          "weight": 2.4,
          "description": "Tracks the performance of the gold price by investing in physical gold bars. All gold is accredited as responsibly sourced. "
        },
        {
          "name": "WisdomTree - gold",
          "weight": 3.6,
          "description": "Tracks the performance of the gold price by investing in physical gold bars. All gold is accredited as responsibly sourced. "
        },
        {
          "name": "International Public Partnerships Infrastructure",
          "weight": 2.1,
          "description": "International Public Partnerships in the US is making a success of building primary, secondary and tertiary education facilities around the world, and students are benefiting."
        },
        {
          "name": "BBGI Global Infrastructure",
          "weight": 1.4,
          "description": "An investor in global infrastructure projects, including safe and accessible transport systems,  hospitals, as well as schools and colleges.  "
        },
        {
          "name": "The Renewables Infrastructure Group",
          "weight": 0.9,
          "description": "TRIG invests in wind and solar infrastructure in the UK and Europe, capitalising on the increased demand for renewable energy and contributing to a zero carbon future."
        },
        {
          "name": "Gresham House Energy Storage Fund",
          "weight": 1.3,
          "description": "Known as GRID, this fairly unique fund offers a chance to invest in battery storage, crucial for ensuring a consistent supply of renewable energy as the National Grid decarbonises.  "
        },
        {
          "name": "Octopus Renewables Infrastructure",
          "weight": 0.9,
          "description": "An investor in onshore wind farms and solar parks across the UK, Europe and Australia, helping to facilitate and capitalise on the energy transition. "
        }
      ]
    },
    {
      "assetGroupType": "Cash",
      "weight": 4.8
    }
  ]
}