{
  "mandate": "The portfolio is designed to provide higher growth, in excess of inflation, with a higher level of risk and targets a positive impact on people and planet, tilted towards your preference for outcomes that improve people\u2019s lives.",
  "carbonFootprint": {
    "value": "61%",
    "description": "less than MSCI World"
  },
  "positiveImpact": {
    "value": "31%",
    "description": "contributes to UN SDGs"
  }
}