{
  "assetGroups": [
    {
      "assetGroupType": "Equities",
      "weight": 1.4,
      "assets": [
        {
          "name": "Octopus Renewables Infrastructure",
          "weight": 1.0,
          "description": "An investor in onshore wind farms and solar parks across the UK, Europe and Australia, helping to facilitate and capitalise on the energy transition."
        }
      ]
    },
    {
      "assetGroupType": "Bonds",
      "weight": 1.4,
      "assets": [
        {
          "name": "Octopus Renewables Infrastructure",
          "weight": 1.0,
          "description": "An investor in onshore wind farms and solar parks across the UK, Europe and Australia, helping to facilitate and capitalise on the energy transition."
        }
      ]
    },
    {
      "assetGroupType": "Other",
      "weight": 1.4,
      "assets": [
        {
          "name": "Octopus Renewables Infrastructure",
          "weight": 1.0,
          "description": "An investor in onshore wind farms and solar parks across the UK, Europe and Australia, helping to facilitate and capitalise on the energy transition."
        }
      ]
    },
    {
      "assetGroupType": "Cash",
      "weight": 1.0
    }
  ]
}