{
  "mandate": "The portfolio is designed to provide limited growth, greater than cash or bond returns, with a low level of risk and targets a positive impact on people and planet, tilted towards your preference for outcomes that improve people\u2019s lives.",
  "carbonFootprint": {
    "value": "64%",
    "description": "less than MSCI World"
  },
  "positiveImpact": {
    "value": "26%",
    "description": "directly contributes to UN SDGs"
  }
}